{
    "response": {
        "status": "ok",
        "userTier": "developer",
        "total": 2458722,
        "startIndex": 1,
        "pageSize": 10,
        "currentPage": 1,
        "pages": 245873,
        "orderBy": "relevance",
        "results": [
            {
                "id": "commentisfree/2017/dec/12/harry-potter-magic-jk-rowling",
                "type": "article",
                "sectionId": "commentisfree",
                "sectionName": "Opinion",
                "webPublicationDate": "2017-12-12T06:00:26Z",
                "webTitle": "Harry Potta and the £4.50 chocolate frog | Alice O’Keeffe",
                "webUrl": "https://www.theguardian.com/commentisfree/2017/dec/12/harry-potter-magic-jk-rowling",
                "apiUrl": "https://content.guardianapis.com/commentisfree/2017/dec/12/harry-potter-magic-jk-rowling",
                "fields": {
                    "trailText": "I was delighted when my son discovered JK Rowling’s books. But the magic is in danger of being sullied by merchandise, says freelance literary critic and journalist Alice O’Keeffe",
                    "thumbnail": "https://media.guim.co.uk/c66852bfdbebb7c12cf66b9b98ccc3fd55fafabf/0_13_640_384/500.jpg"
                },
                "isHosted": false,
                "pillarId": "pillar/opinion",
                "pillarName": "Opinion"
            },
            {
                "id": "lifeandstyle/2017/dec/13/oumuamua-interstellar-body-sent-by-aliens-notes-queries",
                "type": "article",
                "sectionId": "lifeandstyle",
                "sectionName": "Life and style",
                "webPublicationDate": "2017-12-13T11:30:01Z",
                "webTitle": "What if the interstellar body Oumuamua really was sent by aliens? | Notes and queries",
                "webUrl": "https://www.theguardian.com/lifeandstyle/2017/dec/13/oumuamua-interstellar-body-sent-by-aliens-notes-queries",
                "apiUrl": "https://content.guardianapis.com/lifeandstyle/2017/dec/13/oumuamua-interstellar-body-sent-by-aliens-notes-queries",
                "fields": {
                    "trailText": "The long-running series in which readers answer other readers’ questions on subjects ranging from trivial flights of fancy to profound scientific concepts",
                    "thumbnail": "https://media.guim.co.uk/520c0c5de51cc2722ba7e8f5deb156167a3e96a6/0_0_1280_768/500.jpg"
                },
                "isHosted": false,
                "pillarId": "pillar/lifestyle",
                "pillarName": "Lifestyle"
            },
            {
                "id": "us-news/2017/dec/16/mothers-cartoon-france-us",
                "type": "article",
                "sectionId": "us-news",
                "sectionName": "US news",
                "webPublicationDate": "2017-12-16T10:00:02Z",
                "webTitle": "How new moms are supported – or not – in France v the US: a feminist cartoon",
                "webUrl": "https://www.theguardian.com/us-news/2017/dec/16/mothers-cartoon-france-us",
                "apiUrl": "https://content.guardianapis.com/us-news/2017/dec/16/mothers-cartoon-france-us",
                "fields": {
                    "trailText": "France offers full coverage for prenatal and postnatal care, but young mothers get little help afterwards. In the US, things can be even worse",
                    "thumbnail": "https://media.guim.co.uk/c5000a8cf7ff34bf7fec1c2bf5d2f3f534c0b735/29_339_684_411/500.jpg"
                },
                "isHosted": false,
                "pillarId": "pillar/news",
                "pillarName": "News"
            },
            {
                "id": "artanddesign/2018/jan/02/best-architecture-design-of-2018-windermere-vanda",
                "type": "article",
                "sectionId": "artanddesign",
                "sectionName": "Art and design",
                "webPublicationDate": "2018-01-02T15:00:19Z",
                "webTitle": "Wet docks, giant ducks and the zero-waste city: the best architecture and design of 2018",
                "webUrl": "https://www.theguardian.com/artanddesign/2018/jan/02/best-architecture-design-of-2018-windermere-vanda",
                "apiUrl": "https://content.guardianapis.com/artanddesign/2018/jan/02/best-architecture-design-of-2018-windermere-vanda",
                "fields": {
                    "trailText": "Windermere catches a wave, the V&amp;A unveils the city of tomorrow, and Hope to Nope harnesses the explosive power of graphic design",
                    "thumbnail": "https://media.guim.co.uk/44ce5476cf861df6496183e503aea7ad0c63f1ee/0_160_5184_3110/500.jpg"
                },
                "isHosted": false,
                "pillarId": "pillar/arts",
                "pillarName": "Arts"
            },
            {
                "id": "us-news/2017/dec/22/why-medical-students-are-practicing-abortions-on-papayas",
                "type": "article",
                "sectionId": "us-news",
                "sectionName": "US news",
                "webPublicationDate": "2017-12-22T12:00:00Z",
                "webTitle": "Why medical students are practicing abortions on papayas",
                "webUrl": "https://www.theguardian.com/us-news/2017/dec/22/why-medical-students-are-practicing-abortions-on-papayas",
                "apiUrl": "https://content.guardianapis.com/us-news/2017/dec/22/why-medical-students-are-practicing-abortions-on-papayas",
                "fields": {
                    "trailText": "Amid fears of a future abortion ban, a group teaches a discreet procedure using a fruit that looks a bit like the female reproductive system",
                    "thumbnail": "https://media.guim.co.uk/30c3961339afe9edc9de8b037b969e031a410480/0_117_3500_2100/500.jpg"
                },
                "isHosted": false,
                "pillarId": "pillar/news",
                "pillarName": "News"
            },
            {
                "id": "football/blog/2017/dec/11/atletico-get-back-to-what-they-know-and-make-la-liga-a-four-horse-race",
                "type": "article",
                "sectionId": "football",
                "sectionName": "Football",
                "webPublicationDate": "2017-12-11T15:59:13Z",
                "webTitle": "Atlético get back to what they know and make La Liga a four-horse race | Sid Lowe",
                "webUrl": "https://www.theguardian.com/football/blog/2017/dec/11/atletico-get-back-to-what-they-know-and-make-la-liga-a-four-horse-race",
                "apiUrl": "https://content.guardianapis.com/football/blog/2017/dec/11/atletico-get-back-to-what-they-know-and-make-la-liga-a-four-horse-race",
                "fields": {
                    "trailText": "Atlético Madrid, despite a number of issues this season, remain unbeaten in the league and still feel like one of the runners who will compete for the title",
                    "thumbnail": "https://media.guim.co.uk/980c55e2aeaab5ea857fe43106fe4b286f39610a/0_68_3876_2326/500.jpg"
                },
                "isHosted": false,
                "pillarId": "pillar/sport",
                "pillarName": "Sport"
            },
            {
                "id": "books/2017/dec/15/the-house-of-government-by-yuri-slezkine-review-russian-revolution",
                "type": "article",
                "sectionId": "books",
                "sectionName": "Books",
                "webPublicationDate": "2017-12-15T09:00:12Z",
                "webTitle": "The House of Government by Yuri Slezkine review – the Russian Revolution told through one building",
                "webUrl": "https://www.theguardian.com/books/2017/dec/15/the-house-of-government-by-yuri-slezkine-review-russian-revolution",
                "apiUrl": "https://content.guardianapis.com/books/2017/dec/15/the-house-of-government-by-yuri-slezkine-review-russian-revolution",
                "fields": {
                    "trailText": "A dizzying epic history of a 1931 block of flats in Moscow, home to the Soviet elite, aims to tell of the rise and fall of Bolshevism",
                    "thumbnail": "https://media.guim.co.uk/8e6a50e8653652ab3c7d9e72d2ab644c77d78228/35_47_5068_3041/500.jpg"
                },
                "isHosted": false,
                "pillarId": "pillar/arts",
                "pillarName": "Arts"
            },
            {
                "id": "politics/2017/dec/12/theresa-may-puts-tackling-climate-change-back-on-tory-agenda",
                "type": "article",
                "sectionId": "politics",
                "sectionName": "Politics",
                "webPublicationDate": "2017-12-12T00:16:51Z",
                "webTitle": "Theresa May puts tackling climate change back on Tory agenda",
                "webUrl": "https://www.theguardian.com/politics/2017/dec/12/theresa-may-puts-tackling-climate-change-back-on-tory-agenda",
                "apiUrl": "https://content.guardianapis.com/politics/2017/dec/12/theresa-may-puts-tackling-climate-change-back-on-tory-agenda",
                "fields": {
                    "trailText": "Prime minister says there is a ‘moral imperative’ to help vulnerable countries as she prepares for summit in Paris",
                    "thumbnail": "https://media.guim.co.uk/caf34c172797dc01c2cad6a4d811c2dd16fee9fc/0_157_4724_2834/500.jpg"
                },
                "isHosted": false,
                "pillarId": "pillar/news",
                "pillarName": "News"
            },
            {
                "id": "world/2017/dec/11/vladimir-putin-visit-to-syria-airbase-bashir-al-assad",
                "type": "article",
                "sectionId": "world",
                "sectionName": "World news",
                "webPublicationDate": "2017-12-11T16:45:08Z",
                "webTitle": "Vladimir Putin makes triumphant visit to Syria airbase",
                "webUrl": "https://www.theguardian.com/world/2017/dec/11/vladimir-putin-visit-to-syria-airbase-bashir-al-assad",
                "apiUrl": "https://content.guardianapis.com/world/2017/dec/11/vladimir-putin-visit-to-syria-airbase-bashir-al-assad",
                "fields": {
                    "trailText": "President Assad tells Russian leader Syrian people will never forget Russia’s help in driving Islamic State from country<br>",
                    "thumbnail": "https://media.guim.co.uk/304038367f6042bea77b78b5e70c825539656984/20_345_4720_2832/500.jpg"
                },
                "isHosted": false,
                "pillarId": "pillar/news",
                "pillarName": "News"
            },
            {
                "id": "lifeandstyle/2017/dec/30/seasonal-gardening-advice-winter-flowering-clematis-dead-hedge-book-of-seeds",
                "type": "article",
                "sectionId": "lifeandstyle",
                "sectionName": "Life and style",
                "webPublicationDate": "2017-12-30T11:00:10Z",
                "webTitle": "Gardens: what to do this week",
                "webUrl": "https://www.theguardian.com/lifeandstyle/2017/dec/30/seasonal-gardening-advice-winter-flowering-clematis-dead-hedge-book-of-seeds",
                "apiUrl": "https://content.guardianapis.com/lifeandstyle/2017/dec/30/seasonal-gardening-advice-winter-flowering-clematis-dead-hedge-book-of-seeds",
                "fields": {
                    "trailText": "Plant winter-flowering clematis, make a dead hedge and read The Book Of Seeds",
                    "thumbnail": "https://media.guim.co.uk/b992a22d6dac53030e326394f9130a128f481e81/0_863_2511_1506/500.jpg"
                },
                "isHosted": false,
                "pillarId": "pillar/lifestyle",
                "pillarName": "Lifestyle"
            }
        ]
    }
}